SUPERSTAR,FLEX1,FLEX2,FLEX3,FLEX4, ,Instructions,ID,First Name,Last Name,ID + Name,Position,Team,Opponent,Game,Time,Salary,FPPG,Injury Status,Starting
 , , , , , ,1. Locate the player you want to select in the list below, , , , , , , , , , , , , 
 , , , , , ,"2. Copy the ID of your player (you can use the ""ID + Name"" column or the ""ID"" column)", , , , , , , , , , , , , 
 , , , , , ,3. Paste the ID into the roster position desired, , , , , , , , , , , , , 
 , , , , , ,4. You can create up to 4 lineups, , , , , , , , , , , , , 
 , , , , , ,"Note: For each entry, the salary cap is 135", , , , , , , , , , , , , 
 , , , , , , , , , , , , , , , , , , , 
 , , , , , , ,nfl.p.26804$nfl.g.13470478,Latavius,Murray,nfl.p.26804$nfl.g.13470478 - Latavius Murray,RB,BUF,MIA,BUF@MIA,8:20PM EST,12,5.0,O, 
 , , , , , , ,nfl.p.28534$nfl.g.13470478,Stefon,Diggs,nfl.p.28534$nfl.g.13470478 - Stefon Diggs,WR,BUF,MIA,BUF@MIA,8:20PM EST,26,13.0, , 
 , , , , , , ,nfl.p.30977$nfl.g.13470478,Josh,Allen,nfl.p.30977$nfl.g.13470478 - Josh Allen,QB,BUF,MIA,BUF@MIA,8:20PM EST,34,24.1, , 
 , , , , , , ,nfl.p.31301$nfl.g.13470478,Kyle,Allen,nfl.p.31301$nfl.g.13470478 - Kyle Allen,QB,BUF,MIA,BUF@MIA,8:20PM EST,20,-0.2, , 
 , , , , , , ,nfl.p.31320$nfl.g.13470478,Trent,Sherfield,nfl.p.31320$nfl.g.13470478 - Trent Sherfield,WR,BUF,MIA,BUF@MIA,8:20PM EST,10,1.1, , 
 , , , , , , ,nfl.p.31928$nfl.g.13470478,Dawson,Knox,nfl.p.31928$nfl.g.13470478 - Dawson Knox,TE,BUF,MIA,BUF@MIA,8:20PM EST,10,3.4, , 
 , , , , , , ,nfl.p.32018$nfl.g.13470478,Ty,Johnson,nfl.p.32018$nfl.g.13470478 - Ty Johnson,RB,BUF,MIA,BUF@MIA,8:20PM EST,10,3.4, , 
 , , , , , , ,nfl.p.32398$nfl.g.13470478,Deonte,Harty,nfl.p.32398$nfl.g.13470478 - Deonte Harty,WR,BUF,MIA,BUF@MIA,8:20PM EST,10,1.8, , 
 , , , , , , ,nfl.p.32798$nfl.g.13470478,Gabe,Davis,nfl.p.32798$nfl.g.13470478 - Gabe Davis,WR,BUF,MIA,BUF@MIA,8:20PM EST,15,9.3, , 
 , , , , , , ,nfl.p.33357$nfl.g.13470478,Reggie,Gilliam,nfl.p.33357$nfl.g.13470478 - Reggie Gilliam,RB,BUF,MIA,BUF@MIA,8:20PM EST,10,0.2, , 
 , , , , , , ,nfl.p.33819$nfl.g.13470478,Quintin,Morris,nfl.p.33819$nfl.g.13470478 - Quintin Morris,TE,BUF,MIA,BUF@MIA,8:20PM EST,10,3.2, , 
 , , , , , , ,nfl.p.34019$nfl.g.13470478,James,Cook,nfl.p.34019$nfl.g.13470478 - James Cook,RB,BUF,MIA,BUF@MIA,8:20PM EST,28,12.7, , 
 , , , , , , ,nfl.p.34104$nfl.g.13470478,Khalil,Shakir,nfl.p.34104$nfl.g.13470478 - Khalil Shakir,WR,BUF,MIA,BUF@MIA,8:20PM EST,10,5.3, , 
 , , , , , , ,nfl.p.40048$nfl.g.13470478,Dalton,Kincaid,nfl.p.40048$nfl.g.13470478 - Dalton Kincaid,TE,BUF,MIA,BUF@MIA,8:20PM EST,14,6.8, , 
 , , , , , , ,nfl.p.28473$nfl.g.13470478,Tyler,Kroft,nfl.p.28473$nfl.g.13470478 - Tyler Kroft,TE,MIA,BUF,BUF@MIA,8:20PM EST,10,1.3,O, 
 , , , , , , ,nfl.p.28654$nfl.g.13470478,Raheem,Mostert,nfl.p.28654$nfl.g.13470478 - Raheem Mostert,RB,MIA,BUF,BUF@MIA,8:20PM EST,31,17.0,O, 
 , , , , , , ,nfl.p.29399$nfl.g.13470478,Tyreek,Hill,nfl.p.29399$nfl.g.13470478 - Tyreek Hill,WR,MIA,BUF,BUF@MIA,8:20PM EST,39,19.9, , 
 , , , , , , ,nfl.p.29785$nfl.g.13470478,Robbie,Chosen,nfl.p.29785$nfl.g.13470478 - Robbie Chosen,WR,MIA,BUF,BUF@MIA,8:20PM EST,10,4.1, , 
 , , , , , , ,nfl.p.30955$nfl.g.13470478,River,Cracraft,nfl.p.30955$nfl.g.13470478 - River Cracraft,WR,MIA,BUF,BUF@MIA,8:20PM EST,10,4.1, , 
 , , , , , , ,nfl.p.31093$nfl.g.13470478,Durham,Smythe,nfl.p.31093$nfl.g.13470478 - Durham Smythe,TE,MIA,BUF,BUF@MIA,8:20PM EST,10,4.1, , 
 , , , , , , ,nfl.p.31141$nfl.g.13470478,Mike,White,nfl.p.31141$nfl.g.13470478 - Mike White,QB,MIA,BUF,BUF@MIA,8:20PM EST,20,0.5, , 
 , , , , , , ,nfl.p.31178$nfl.g.13470478,Cedrick,Wilson Jr.,nfl.p.31178$nfl.g.13470478 - Cedrick Wilson Jr.,WR,MIA,BUF,BUF@MIA,8:20PM EST,10,5.6, , 
 , , , , , , ,nfl.p.31180$nfl.g.13470478,Braxton,Berrios,nfl.p.31180$nfl.g.13470478 - Braxton Berrios,WR,MIA,BUF,BUF@MIA,8:20PM EST,10,2.8, , 
 , , , , , , ,nfl.p.31394$nfl.g.13470478,Jeff,Wilson Jr.,nfl.p.31394$nfl.g.13470478 - Jeff Wilson Jr.,RB,MIA,BUF,BUF@MIA,8:20PM EST,10,3.7, , 
 , , , , , , ,nfl.p.32344$nfl.g.13470478,Alec,Ingold,nfl.p.32344$nfl.g.13470478 - Alec Ingold,RB,MIA,BUF,BUF@MIA,8:20PM EST,10,1.8, , 
 , , , , , , ,nfl.p.32675$nfl.g.13470478,Tua,Tagovailoa,nfl.p.32675$nfl.g.13470478 - Tua Tagovailoa,QB,MIA,BUF,BUF@MIA,8:20PM EST,28,17.2, , 
 , , , , , , ,nfl.p.32719$nfl.g.13470478,Chase,Claypool,nfl.p.32719$nfl.g.13470478 - Chase Claypool,WR,MIA,BUF,BUF@MIA,8:20PM EST,10,1.7, , 
 , , , , , , ,nfl.p.33394$nfl.g.13470478,Jaylen,Waddle,nfl.p.33394$nfl.g.13470478 - Jaylen Waddle,WR,MIA,BUF,BUF@MIA,8:20PM EST,27,11.6,O, 
 , , , , , , ,nfl.p.34203$nfl.g.13470478,Skylar,Thompson,nfl.p.34203$nfl.g.13470478 - Skylar Thompson,QB,MIA,BUF,BUF@MIA,8:20PM EST,20,4.2,O, 
 , , , , , , ,nfl.p.40118$nfl.g.13470478,De'Von,Achane,nfl.p.40118$nfl.g.13470478 - De'Von Achane,RB,MIA,BUF,BUF@MIA,8:20PM EST,26,16.5, , 
 , , , , , , ,nfl.p.40625$nfl.g.13470478,Chris,Brooks,nfl.p.40625$nfl.g.13470478 - Chris Brooks,RB,MIA,BUF,BUF@MIA,8:20PM EST,10,3.5, , 
 , , , , , , ,nfl.p.40629$nfl.g.13470478,Julian,Hill,nfl.p.40629$nfl.g.13470478 - Julian Hill,TE,MIA,BUF,BUF@MIA,8:20PM EST,10,1.0, , 
 , , , , , , ,nfl.t.2$nfl.g.13470478,Buffalo,Bills,nfl.t.2$nfl.g.13470478 - Buffalo Bills,DEF,BUF,MIA,BUF@MIA,8:20PM EST,17,9.2, , 
 , , , , , , ,nfl.t.15$nfl.g.13470478,Miami,Dolphins,nfl.t.15$nfl.g.13470478 - Miami Dolphins,DEF,MIA,BUF,BUF@MIA,8:20PM EST,17,8.9, , 
 , , , , , , ,nfl.p.40167$nfl.g.13470478,Justin,Shorter,nfl.p.40167$nfl.g.13470478 - Justin Shorter,WR,BUF,MIA,BUF@MIA,8:20PM EST,10,0.0,IR, 